4:140466137773824:Insertion successful
9:140466146166528:Insertion successful
2:140466154559232:Insertion successful
13:140466104203008:Insertion successful
3:140466129381120:Insertion successful
8:140466162951936:Insertion successful
1:140466120988416:Insertion successful
67:140466095810304:Insertion successful
0:140466171344640:Insertion successful
5:140466112595712:Insertion successful
19:140466087417600:Insertion successful
15:140466070632192:Insertion successful
10:140466079024896:Insertion successful
12:140466062239488:Insertion successful
38:140466053846784:Insertion successful
29:140466037061376:Insertion successful
71:140466045454080:Insertion successful
75:140466020275968:Insertion successful
73:140466028668672:Insertion successful
81:140466011883264:Insertion successful
68:140466146166528:Insertion successful
82:140466154559232:Insertion successful
41:140466120988416:Insertion successful
63:140466129381120:Insertion successful
66:140466104203008:Insertion successful
83:140466162951936:Insertion successful
64:140466137773824:Insertion successful
40:140466070632192:Insertion successful
33:140466053846784:Insertion successful
20:140466062239488:Insertion successful
39:140466171344640:Insertion successful
21:140466095810304:Insertion successful
37:140466079024896:Insertion successful
14:140466112595712:Insertion successful
35:140466045454080:Insertion successful
11:140466087417600:Insertion successful
36:140466037061376:Insertion successful
22:140466020275968:Insertion successful
34:140466028668672:Insertion successful
95:140466011883264:Insertion successful
97:140466146166528:Insertion successful
96:140466154559232:Insertion successful
98:140466120988416:Insertion successful
30:140466104203008:Insertion successful
44:140466162951936:Insertion successful
58:140466129381120:Insertion successful
60:140466137773824:Insertion successful
52:140466079024896:Insertion successful
51:140466070632192:Insertion successful
28:140466171344640:Insertion successful
80:140466020275968:Insertion successful
99:140466028668672:Insertion successful
84:140466062239488:Insertion successful
6:140466095810304:Insertion successful
53:140466112595712:Insertion successful
50:140466053846784:Insertion successful
49:140466045454080:Insertion successful
7:140466011883264:Insertion successful
61:140466037061376:Insertion successful
79:140466087417600:Insertion successful
76:140466146166528:Insertion successful
18:140466154559232:Insertion successful
56:140466104203008:Insertion successful
45:140466162951936:Insertion successful
26:140466129381120:Insertion successful
54:140466137773824:Insertion successful
62:140466120988416:Insertion successful
77:140466070632192:Insertion successful
78:140466079024896:Insertion successful
31:140466020275968:Insertion successful
16:140466112595712:Insertion successful
17:140466062239488:Insertion successful
85:140466028668672:Insertion successful
32:140466037061376:Insertion successful
27:140466095810304:Insertion successful
86:140466087417600:Insertion successful
92:140466171344640:Insertion successful
70:140466045454080:Insertion successful
65:140466011883264:Insertion successful
91:140466053846784:Insertion successful
87:140466146166528:Insertion successful
89:140466104203008:Insertion successful
88:140466154559232:Insertion successful
93:140466129381120:Insertion successful
90:140466162951936:Insertion successful
94:140466137773824:Insertion successful
23:140466120988416:Insertion successful
24:140466070632192:Insertion successful
25:140466079024896:Insertion successful
43:140466020275968:Insertion successful
55:140466112595712:Insertion successful
47:140466062239488:Insertion successful
48:140466028668672:Insertion successful
42:140466037061376:Insertion successful
59:140466095810304:Insertion successful
69:140466087417600:Insertion successful
72:140466171344640:Insertion successful
46:140466045454080:Insertion successful
57:140466011883264:Insertion successful
74:140466053846784:Insertion successful
106:140466146166528:1413
101:140466104203008:43
100:140466129381120:21
105:140466154559232:1211
102:140466162951936:65
103:140466137773824:87
104:140466120988416:109
118:140466070632192:3837
121:140466079024896:4443
122:140466020275968:4645
113:140466062239488:2827
132:140466112595712:6665
144:140466028668672:9089
126:140466037061376:5453
143:140466095810304:8887
137:140466087417600:7675
107:140466045454080:1615
129:140466171344640:6059
111:140466053846784:2423
148:140466011883264:9897
138:140466146166528:7877
127:140466104203008:5655
109:140466162951936:2019
114:140466154559232:3029
135:140466137773824:7271
136:140466129381120:7473
134:140466120988416:7069
133:140466070632192:6867
145:140466079024896:9291
149:140466028668672:10099
116:140466112595712:3433
130:140466020275968:6261
119:140466037061376:4039
128:140466062239488:5857
115:140466095810304:3231
142:140466087417600:8685
146:140466045454080:9493
141:140466171344640:8483
131:140466053846784:6463
110:140466011883264:2221
112:140466146166528:2625
139:140466104203008:8079
117:140466162951936:3635
140:140466154559232:8281
125:140466129381120:5251
124:140466120988416:5049
147:140466137773824:9695
123:140466070632192:4847
120:140466079024896:4241
108:140466028668672:1817
164:140466062239488:29303029
172:140466037061376:45464645
173:140466095810304:47484847
160:140466112595712:21222221
174:140466087417600:49505049
175:140466020275968:51525251
166:140466045454080:33343433
159:140466171344640:19202019
171:140466011883264:43444443
162:140466053846784:25262625
169:140466146166528:39404039
154:140466104203008:910109
156:140466154559232:13141413
155:140466162951936:11121211
167:140466129381120:35363635
198:140466120988416:97989897
196:140466137773824:93949493
187:140466070632192:75767675
192:140466079024896:85868685
157:140466028668672:15161615
165:140466037061376:31323231
181:140466112595712:63646463
158:140466171344640:17181817
186:140466045454080:73747473
189:140466095810304:79808079
176:140466062239488:53545453
168:140466020275968:37383837
191:140466087417600:83848483
188:140466011883264:77787877
177:140466053846784:55565655
179:140466146166528:59606059
190:140466104203008:81828281
153:140466129381120:7887
170:140466154559232:41424241
150:140466120988416:1221
152:140466137773824:5665
178:140466162951936:57585857
182:140466070632192:65666665
183:140466079024896:67686867
151:140466028668672:3443
195:140466037061376:91929291
184:140466112595712:69707069
194:140466045454080:89909089
180:140466171344640:61626261
199:140466011883264:9910010099
163:140466095810304:27282827
185:140466062239488:71727271
197:140466020275968:95969695
193:140466053846784:87888887
161:140466087417600:23242423
203:140466120988416:4334
209:140466104203008:109910
207:140466129381120:8778
201:140466154559232:2112
202:140466070632192:3443
200:140466137773824:1221
205:140466146166528:6556
266:140466079024896:67686867
218:140466062239488:19202019
270:140466028668672:71727271
204:140466162951936:5665
206:140466095810304:7887
213:140466112595712:14131314
277:140466053846784:78777778
268:140466045454080:69707069
211:140466037061376:12111112
278:140466020275968:79808079
265:140466171344640:66656566
299:140466087417600:1009999100
216:140466011883264:17181817
273:140466120988416:74737374
275:140466104203008:76757576
285:140466129381120:86858586
284:140466070632192:85868685
281:140466154559232:82818182
283:140466137773824:84838384
229:140466079024896:30292930
296:140466146166528:97989897
228:140466028668672:29303029
223:140466062239488:24232324
236:140466171344640:37383837
231:140466162951936:32313132
290:140466095810304:91929291
232:140466037061376:33343433
292:140466011883264:93949493
224:140466053846784:25262625
256:140466045454080:57585857
225:140466112595712:26252526
288:140466087417600:89909089
247:140466020275968:48474748
286:140466120988416:87888887
287:140466104203008:88878788
279:140466129381120:80797980
297:140466137773824:98979798
298:140466154559232:9910010099
291:140466079024896:92919192
295:140466146166528:96959596
293:140466070632192:94939394
272:140466028668672:73747473
280:140466162951936:81828281
274:140466037061376:75767675
276:140466062239488:77787877
271:140466011883264:72717172
289:140466095810304:90898990
264:140466112595712:65666665
267:140466045454080:68676768
294:140466053846784:95969695
220:140466020275968:21222221
222:140466087417600:23242423
282:140466171344640:83848483
210:140466120988416:11121211
212:140466104203008:13141413
208:140466137773824:910109
214:140466129381120:15161615
233:140466079024896:34333334
260:140466070632192:61626261
239:140466154559232:40393940
221:140466146166528:22212122
244:140466028668672:45464645
250:140466162951936:51525251
246:140466037061376:47484847
242:140466011883264:43444443
249:140466062239488:50494950
243:140466045454080:44434344
255:140466053846784:56555556
234:140466112595712:35363635
254:140466020275968:55565655
261:140466095810304:62616162
248:140466171344640:49505049
219:140466087417600:20191920
258:140466120988416:59606059
237:140466104203008:38373738
253:140466129381120:54535354
226:140466079024896:27282827
263:140466137773824:64636364
227:140466146166528:28272728
257:140466154559232:58575758
230:140466070632192:31323231
269:140466028668672:70696970
238:140466162951936:39404039
235:140466037061376:36353536
240:140466011883264:41424241
241:140466062239488:42414142
217:140466045454080:18171718
251:140466112595712:52515152
259:140466095810304:60595960
262:140466020275968:63646463
252:140466171344640:53545453
245:140466053846784:46454546
215:140466087417600:16151516
