3 3 3
40
3
6
A1 A 1 100 100
A3 A 1 100 100
A5 A 1 100 100
A2 A 5 2 100
A4 A 5 2 100
A6 A 5 2 100
6
H1 H 5 100 1
H3 H 5 100 1
H5 H 5 100 1
H2 H 10 20 2
H4 H 10 20 5
H6 H 10 20 5
6
N1 N 5 100 -1
N3 N 5 100 -1
N5 N 5 100 -1
N2 N 25 2 -1
N4 N 25 2 -1
N6 N 25 2 -1
2
A 12 1
A 22 1


